\relax 
\providecommand\hyper@newdestlabel[2]{}
\providecommand\HyperFirstAtBeginDocument{\AtBeginDocument}
\HyperFirstAtBeginDocument{\ifx\hyper@anchor\@undefined
\global\let\oldcontentsline\contentsline
\gdef\contentsline#1#2#3#4{\oldcontentsline{#1}{#2}{#3}}
\global\let\oldnewlabel\newlabel
\gdef\newlabel#1#2{\newlabelxx{#1}#2}
\gdef\newlabelxx#1#2#3#4#5#6{\oldnewlabel{#1}{{#2}{#3}}}
\AtEndDocument{\ifx\hyper@anchor\@undefined
\let\contentsline\oldcontentsline
\let\newlabel\oldnewlabel
\fi}
\fi}
\global\let\hyper@last\relax 
\gdef\HyperFirstAtBeginDocument#1{#1}
\providecommand\HyField@AuxAddToFields[1]{}
\providecommand\HyField@AuxAddToCoFields[2]{}
\citation{reviewThreats}
\@writefile{toc}{\contentsline {section}{\numberline {1}Introduction}{1}{section.1}\protected@file@percent }
\citation{handbookCrypto}
\citation{sans_pki}
\citation{CT}
\citation{ct_privacy}
\citation{rethinkingPKIs}
\citation{pgp_rfc}
\citation{proof_of_work}
\citation{puzzles_fair}
\@writefile{toc}{\contentsline {section}{\numberline {2}Blockchain background}{3}{section.2}\protected@file@percent }
\citation{ethereum_yellow}
\citation{IKP}
\citation{backing}
\citation{framework}
\citation{certcoin}
\citation{trustery}
\citation{PBPKI}
\citation{keychain}
\citation{ipfsControl}
\citation{rebootWoT}
\citation{remme}
\citation{trustery}
\citation{keychain}
\citation{remme}
\@writefile{toc}{\contentsline {section}{\numberline {3}Related Work}{4}{section.3}\protected@file@percent }
\citation{IKP}
\citation{backing}
\citation{framework}
\citation{certcoin}
\citation{PBPKI}
\citation{certcoin}
\citation{ipfsControl}
\citation{ipfsControl}
\citation{rebootWoT}
\@writefile{lot}{\contentsline {table}{\numberline {1}{\ignorespaces Summary of project features.\relax }}{5}{table.caption.1}\protected@file@percent }
\providecommand*\caption@xref[2]{\@setref\relax\@undefined{#1}}
\newlabel{tab:relatedWork}{{1}{5}{Summary of project features.\relax }{table.caption.1}{}}
\citation{attacks1}
\@writefile{toc}{\contentsline {section}{\numberline {4}Proposal}{6}{section.4}\protected@file@percent }
\@writefile{lof}{\contentsline {figure}{\numberline {1}{\ignorespaces Overview of roles and networks.\relax }}{6}{figure.caption.2}\protected@file@percent }
\newlabel{fig:overview}{{1}{6}{Overview of roles and networks.\relax }{figure.caption.2}{}}
\@writefile{toc}{\contentsline {section}{\numberline {5}Evaluation }{7}{section.5}\protected@file@percent }
\@writefile{toc}{\contentsline {subsection}{\numberline {5.1}Smart contract}{7}{subsection.5.1}\protected@file@percent }
\citation{handbookCrypto}
\citation{sha_nist}
\citation{bitmessage}
\citation{ots}
\@writefile{toc}{\contentsline {subsection}{\numberline {5.2}Web application}{8}{subsection.5.2}\protected@file@percent }
\@writefile{lof}{\contentsline {figure}{\numberline {2}{\ignorespaces Involved technologies and data structures.\relax }}{9}{figure.caption.3}\protected@file@percent }
\newlabel{fig:evaluation}{{2}{9}{Involved technologies and data structures.\relax }{figure.caption.3}{}}
\@writefile{toc}{\contentsline {section}{\numberline {6}Use case}{9}{section.6}\protected@file@percent }
\citation{pgp_usability}
\citation{bitmessage}
\@writefile{toc}{\contentsline {section}{\numberline {7}Discussion}{10}{section.7}\protected@file@percent }
\@writefile{lot}{\contentsline {table}{\numberline {2}{\ignorespaces Function enumeration.\relax }}{11}{table.caption.4}\protected@file@percent }
\newlabel{tab:functions}{{2}{11}{Function enumeration.\relax }{table.caption.4}{}}
\@writefile{toc}{\contentsline {section}{\numberline {8}Conclusions}{12}{section.8}\protected@file@percent }
\@writefile{toc}{\contentsline {section}{\numberline {9}Future Work}{12}{section.9}\protected@file@percent }
\citation{*}
\bibstyle{plain}
\bibdata{references}
\bibcite{trustery}{1}
\bibcite{rebootWoT}{2}
\bibcite{PBPKI}{3}
\bibcite{puzzles_fair}{4}
\bibcite{rethinkingPKIs}{5}
\bibcite{ethereum_white}{6}
\bibcite{pgp_rfc}{7}
\bibcite{ots}{8}
\bibcite{proof_of_work}{9}
\bibcite{ct_privacy}{10}
\bibcite{attacks1}{11}
\bibcite{distPKI02_didactic}{12}
\bibcite{certcoin}{13}
\bibcite{backing}{14}
\@writefile{toc}{\contentsline {section}{\numberline {10}Acknowledgments}{13}{section.10}\protected@file@percent }
\@writefile{toc}{\contentsline {section}{\numberline {11}References}{13}{section.11}\protected@file@percent }
\bibcite{remme}{15}
\bibcite{IKP}{16}
\bibcite{distPKI03}{17}
\bibcite{handbookCrypto}{18}
\bibcite{bitcoin}{19}
\bibcite{sha_nist}{20}
\bibcite{pgp_usability}{21}
\bibcite{reviewThreats}{22}
\bibcite{CT}{23}
\bibcite{revocation}{24}
\bibcite{keychain}{25}
\bibcite{ipfsControl}{26}
\bibcite{bitmessage}{27}
\bibcite{sans_pki}{28}
\bibcite{ethereum_yellow}{29}
\bibcite{framework}{30}
\@writefile{toc}{\contentsline {section}{\numberline {12}Appendix 0. Planning}{15}{section.12}\protected@file@percent }
\@writefile{toc}{\contentsline {section}{\numberline {13}Appendix 1. Contract cost}{16}{section.13}\protected@file@percent }
